stress-ng: debug: [9146] 2 processors online, 2 processors configured
stress-ng: info:  [9146] dispatching hogs: 15 vm
stress-ng: debug: [9146] cache allocate: default cache size: 46080K
stress-ng: debug: [9146] starting stressors
stress-ng: debug: [9164] stress-ng-vm: started [9164] (instance 0)
stress-ng: debug: [9164] stress-ng-vm using method 'all'
stress-ng: debug: [9168] stress-ng-vm: started [9168] (instance 4)
stress-ng: debug: [9146] 15 stressors spawned
stress-ng: debug: [9168] stress-ng-vm using method 'all'
stress-ng: debug: [9165] stress-ng-vm: started [9165] (instance 1)
stress-ng: debug: [9166] stress-ng-vm: started [9166] (instance 2)
stress-ng: debug: [9165] stress-ng-vm using method 'all'
stress-ng: debug: [9167] stress-ng-vm: started [9167] (instance 3)
stress-ng: debug: [9179] stress-ng-vm: started [9179] (instance 14)
stress-ng: debug: [9166] stress-ng-vm using method 'all'
stress-ng: debug: [9179] stress-ng-vm using method 'all'
stress-ng: debug: [9169] stress-ng-vm: started [9169] (instance 5)
stress-ng: debug: [9178] stress-ng-vm: started [9178] (instance 13)
stress-ng: debug: [9167] stress-ng-vm using method 'all'
stress-ng: debug: [9170] stress-ng-vm: started [9170] (instance 6)
stress-ng: debug: [9178] stress-ng-vm using method 'all'
stress-ng: debug: [9169] stress-ng-vm using method 'all'
stress-ng: debug: [9171] stress-ng-vm: started [9171] (instance 7)
stress-ng: debug: [9177] stress-ng-vm: started [9177] (instance 12)
stress-ng: debug: [9170] stress-ng-vm using method 'all'
stress-ng: debug: [9172] stress-ng-vm: started [9172] (instance 8)
stress-ng: debug: [9171] stress-ng-vm using method 'all'
stress-ng: debug: [9173] stress-ng-vm: started [9173] (instance 9)
stress-ng: debug: [9172] stress-ng-vm using method 'all'
stress-ng: debug: [9173] stress-ng-vm using method 'all'
stress-ng: debug: [9177] stress-ng-vm using method 'all'
stress-ng: debug: [9175] stress-ng-vm: started [9175] (instance 11)
stress-ng: debug: [9175] stress-ng-vm using method 'all'
stress-ng: debug: [9174] stress-ng-vm: started [9174] (instance 10)
stress-ng: debug: [9174] stress-ng-vm using method 'all'
stress-ng: debug: [9179] stress-ng-vm: child died: signal 9 (Killed) (instance 14)
stress-ng: debug: [9179] stress-ng-vm: assuming killed by OOM killer, restarting again (instance 14)
stress-ng: debug: [9168] stress-ng-vm: exited [9168] (instance 4)
stress-ng: debug: [9179] stress-ng-vm: OOM restarts: 1, out of memory restarts: 0.
stress-ng: debug: [9179] stress-ng-vm: exited [9179] (instance 14)
stress-ng: debug: [9173] stress-ng-vm: exited [9173] (instance 9)
stress-ng: debug: [9169] stress-ng-vm: exited [9169] (instance 5)
stress-ng: debug: [9172] stress-ng-vm: exited [9172] (instance 8)
stress-ng: debug: [9177] stress-ng-vm: exited [9177] (instance 12)
stress-ng: debug: [9171] stress-ng-vm: exited [9171] (instance 7)
stress-ng: debug: [9164] stress-ng-vm: exited [9164] (instance 0)
stress-ng: debug: [9146] process [9164] terminated
stress-ng: debug: [9167] stress-ng-vm: exited [9167] (instance 3)
stress-ng: debug: [9170] stress-ng-vm: exited [9170] (instance 6)
stress-ng: debug: [9166] stress-ng-vm: exited [9166] (instance 2)
stress-ng: debug: [9175] stress-ng-vm: exited [9175] (instance 11)
stress-ng: debug: [9165] stress-ng-vm: exited [9165] (instance 1)
stress-ng: debug: [9146] process [9165] terminated
stress-ng: debug: [9146] process [9166] terminated
stress-ng: debug: [9146] process [9167] terminated
stress-ng: debug: [9146] process [9168] terminated
stress-ng: debug: [9146] process [9169] terminated
stress-ng: debug: [9146] process [9170] terminated
stress-ng: debug: [9146] process [9171] terminated
stress-ng: debug: [9146] process [9172] terminated
stress-ng: debug: [9146] process [9173] terminated
stress-ng: debug: [9178] stress-ng-vm: exited [9178] (instance 13)
stress-ng: debug: [9174] stress-ng-vm: exited [9174] (instance 10)
stress-ng: debug: [9146] process [9174] terminated
stress-ng: debug: [9146] process [9175] terminated
stress-ng: debug: [9146] process [9177] terminated
stress-ng: debug: [9146] process [9178] terminated
stress-ng: debug: [9146] process [9179] terminated
stress-ng: info:  [9146] successful run completed in 300.23s (5 mins, 0.23 secs)
stress-ng: info:  [9146] stressor       bogo ops real time  usr time  sys time   bogo ops/s   bogo ops/s
stress-ng: info:  [9146]                           (secs)    (secs)    (secs)   (real time) (usr+sys time)
stress-ng: info:  [9146] vm              9802780    300.17    521.47     77.54     32657.85     16364.97
