stress-ng: debug: [9326] 2 processors online, 2 processors configured
stress-ng: info:  [9326] dispatching hogs: 15 vm
stress-ng: debug: [9326] cache allocate: default cache size: 46080K
stress-ng: debug: [9326] starting stressors
stress-ng: debug: [9339] stress-ng-vm: started [9339] (instance 0)
stress-ng: debug: [9339] stress-ng-vm using method 'all'
stress-ng: debug: [9326] 15 stressors spawned
stress-ng: debug: [9340] stress-ng-vm: started [9340] (instance 1)
stress-ng: debug: [9341] stress-ng-vm: started [9341] (instance 2)
stress-ng: debug: [9340] stress-ng-vm using method 'all'
stress-ng: debug: [9341] stress-ng-vm using method 'all'
stress-ng: debug: [9351] stress-ng-vm: started [9351] (instance 11)
stress-ng: debug: [9353] stress-ng-vm: started [9353] (instance 13)
stress-ng: debug: [9352] stress-ng-vm: started [9352] (instance 12)
stress-ng: debug: [9351] stress-ng-vm using method 'all'
stress-ng: debug: [9354] stress-ng-vm: started [9354] (instance 14)
stress-ng: debug: [9353] stress-ng-vm using method 'all'
stress-ng: debug: [9352] stress-ng-vm using method 'all'
stress-ng: debug: [9354] stress-ng-vm using method 'all'
stress-ng: debug: [9349] stress-ng-vm: started [9349] (instance 10)
stress-ng: debug: [9348] stress-ng-vm: started [9348] (instance 9)
stress-ng: debug: [9349] stress-ng-vm using method 'all'
stress-ng: debug: [9347] stress-ng-vm: started [9347] (instance 8)
stress-ng: debug: [9348] stress-ng-vm using method 'all'
stress-ng: debug: [9344] stress-ng-vm: started [9344] (instance 5)
stress-ng: debug: [9346] stress-ng-vm: started [9346] (instance 7)
stress-ng: debug: [9347] stress-ng-vm using method 'all'
stress-ng: debug: [9345] stress-ng-vm: started [9345] (instance 6)
stress-ng: debug: [9344] stress-ng-vm using method 'all'
stress-ng: debug: [9345] stress-ng-vm using method 'all'
stress-ng: debug: [9346] stress-ng-vm using method 'all'
stress-ng: debug: [9343] stress-ng-vm: started [9343] (instance 4)
stress-ng: debug: [9343] stress-ng-vm using method 'all'
stress-ng: debug: [9342] stress-ng-vm: started [9342] (instance 3)
stress-ng: debug: [9342] stress-ng-vm using method 'all'
stress-ng: debug: [9339] stress-ng-vm: child died: signal 9 (Killed) (instance 0)
stress-ng: debug: [9339] stress-ng-vm: assuming killed by OOM killer, restarting again (instance 0)
stress-ng: error: [9369] stress-ng-vm: gave up trying to mmap, no available memory
stress-ng: debug: [9339] stress-ng-vm: OOM restarts: 1, out of memory restarts: 0.
stress-ng: debug: [9339] stress-ng-vm: exited [9339] (instance 0)
stress-ng: debug: [9326] process [9339] terminated
stress-ng: debug: [9340] stress-ng-vm: child died: signal 9 (Killed) (instance 1)
stress-ng: debug: [9340] stress-ng-vm: assuming killed by OOM killer, restarting again (instance 1)
stress-ng: error: [9390] stress-ng-vm: gave up trying to mmap, no available memory
stress-ng: debug: [9340] stress-ng-vm: OOM restarts: 1, out of memory restarts: 0.
stress-ng: debug: [9340] stress-ng-vm: exited [9340] (instance 1)
stress-ng: debug: [9326] process [9340] terminated
stress-ng: debug: [9347] stress-ng-vm: exited [9347] (instance 8)
stress-ng: debug: [9342] stress-ng-vm: exited [9342] (instance 3)
stress-ng: debug: [9341] stress-ng-vm: exited [9341] (instance 2)
stress-ng: debug: [9326] process [9341] terminated
stress-ng: debug: [9326] process [9342] terminated
stress-ng: debug: [9346] stress-ng-vm: exited [9346] (instance 7)
stress-ng: debug: [9349] stress-ng-vm: exited [9349] (instance 10)
stress-ng: debug: [9351] stress-ng-vm: exited [9351] (instance 11)
stress-ng: debug: [9352] stress-ng-vm: exited [9352] (instance 12)
stress-ng: debug: [9353] stress-ng-vm: exited [9353] (instance 13)
stress-ng: debug: [9343] stress-ng-vm: exited [9343] (instance 4)
stress-ng: debug: [9326] process [9343] terminated
stress-ng: debug: [9345] stress-ng-vm: exited [9345] (instance 6)
stress-ng: debug: [9344] stress-ng-vm: exited [9344] (instance 5)
stress-ng: debug: [9326] process [9344] terminated
stress-ng: debug: [9326] process [9345] terminated
stress-ng: debug: [9326] process [9346] terminated
stress-ng: debug: [9326] process [9347] terminated
stress-ng: debug: [9348] stress-ng-vm: exited [9348] (instance 9)
stress-ng: debug: [9326] process [9348] terminated
stress-ng: debug: [9326] process [9349] terminated
stress-ng: debug: [9326] process [9351] terminated
stress-ng: debug: [9326] process [9352] terminated
stress-ng: debug: [9326] process [9353] terminated
stress-ng: debug: [9354] stress-ng-vm: exited [9354] (instance 14)
stress-ng: debug: [9326] process [9354] terminated
stress-ng: info:  [9326] successful run completed in 300.22s (5 mins, 0.22 secs)
stress-ng: info:  [9326] stressor       bogo ops real time  usr time  sys time   bogo ops/s   bogo ops/s
stress-ng: info:  [9326]                           (secs)    (secs)    (secs)   (real time) (usr+sys time)
stress-ng: info:  [9326] vm              9705801    273.07    515.64     80.30     35543.03     16286.54
