              total        used        free      shared  buff/cache   available
Mem:             15           0          14           0           0          14
Swap:             0           0           0
