
---------------------Network Benchmark------------------------

Network speed(1st run)  :  Download: 934.61 Mbit/s, Upload: 881.73 Mbit/s
Network speed(2st run)  :  Download: 2858.49 Mbit/s, Upload: 986.79 Mbit/s
Network speed(3st run)  :  Download: 2936.42 Mbit/s, Upload: 924.97 Mbit/s
Network speed(4st run)  :  Download: 2878.64 Mbit/s, Upload: 977.68 Mbit/s
Network speed(5st run)  :  Download: 2805.45 Mbit/s, Upload: 1058.55 Mbit/s

Average Network speed   :  Download: 2482.72 Mbit/s, Upload: 965.94 Mbits


