Filesystem     1K-blocks    Used Available Use% Mounted on
udev            16457748       0  16457748   0% /dev
tmpfs            3293956     768   3293188   1% /run
/dev/xvda1       8065444 1873624   6175436  24% /
tmpfs           16469776       0  16469776   0% /dev/shm
tmpfs               5120       0      5120   0% /run/lock
tmpfs           16469776       0  16469776   0% /sys/fs/cgroup
/dev/loop0         90112   90112         0 100% /snap/core/5328
/dev/loop1          4096    4096         0 100% /snap/stress-ng/503
/dev/loop2         18304   18304         0 100% /snap/amazon-ssm-agent/1068
/dev/loop4         93184   93184         0 100% /snap/core/6405
/dev/loop3         13056   13056         0 100% /snap/amazon-ssm-agent/495
tmpfs            3293952       0   3293952   0% /run/user/1000
